…
There are 134 unique aisles and fresh vegetables is the most items
ordered from. Fresh fruits comes the second and packaged vegetables
fruit comes the third.

``` r
instacart %>% group_by(aisle) %>% summarise(cnt = n()) %>% arrange(desc(cnt))
```

    ## # A tibble: 134 × 2
    ##    aisle                            cnt
    ##    <chr>                          <int>
    ##  1 fresh vegetables              150609
    ##  2 fresh fruits                  150473
    ##  3 packaged vegetables fruits     78493
    ##  4 yogurt                         55240
    ##  5 packaged cheese                41699
    ##  6 water seltzer sparkling water  36617
    ##  7 milk                           32644
    ##  8 chips pretzels                 31269
    ##  9 soy lactosefree                26240
    ## 10 bread                          23635
    ## # ℹ 124 more rows
…
